%YAML 1.1
%TAG !u! tag:unity3d.com,2011:
--- !u!1001 &729565347438956475
PrefabInstance:
  m_ObjectHideFlags: 0
  serializedVersion: 2
  m_Modification:
    serializedVersion: 3
    m_TransformParent: {fileID: 0}
    m_Modifications:
    - target: {fileID: 1352894774112081600, guid: 666963a4e1b0df641b0d37d2797e9047, type: 3}
      propertyPath: altSprite
      value: 
      objectReference: {fileID: 21300000, guid: 639d0f34c6eaa804489d1203e59cb3c4, type: 3}
    - target: {fileID: 4267770524982629384, guid: 666963a4e1b0df641b0d37d2797e9047, type: 3}
      propertyPath: m_Sprite
      value: 
      objectReference: {fileID: 21300000, guid: 373c4fed448951149944f7b14116f5ed, type: 3}
    - target: {fileID: 4267770524982629384, guid: 666963a4e1b0df641b0d37d2797e9047, type: 3}
      propertyPath: m_WasSpriteAssigned
      value: 1
      objectReference: {fileID: 0}
    - target: {fileID: 4928114926383088825, guid: 666963a4e1b0df641b0d37d2797e9047, type: 3}
      propertyPath: m_Name
      value: Floor
      objectReference: {fileID: 0}
    - target: {fileID: 7317635173529555237, guid: 666963a4e1b0df641b0d37d2797e9047, type: 3}
      propertyPath: m_RootOrder
      value: 0
      objectReference: {fileID: 0}
    - target: {fileID: 7317635173529555237, guid: 666963a4e1b0df641b0d37d2797e9047, type: 3}
      propertyPath: m_LocalPosition.x
      value: 0
      objectReference: {fileID: 0}
    - target: {fileID: 7317635173529555237, guid: 666963a4e1b0df641b0d37d2797e9047, type: 3}
      propertyPath: m_LocalPosition.y
      value: 0
      objectReference: {fileID: 0}
    - target: {fileID: 7317635173529555237, guid: 666963a4e1b0df641b0d37d2797e9047, type: 3}
      propertyPath: m_LocalPosition.z
      value: 0
      objectReference: {fileID: 0}
    - target: {fileID: 7317635173529555237, guid: 666963a4e1b0df641b0d37d2797e9047, type: 3}
      propertyPath: m_LocalRotation.w
      value: 1
      objectReference: {fileID: 0}
    - target: {fileID: 7317635173529555237, guid: 666963a4e1b0df641b0d37d2797e9047, type: 3}
      propertyPath: m_LocalRotation.x
      value: 0
      objectReference: {fileID: 0}
    - target: {fileID: 7317635173529555237, guid: 666963a4e1b0df641b0d37d2797e9047, type: 3}
      propertyPath: m_LocalRotation.y
      value: 0
      objectReference: {fileID: 0}
    - target: {fileID: 7317635173529555237, guid: 666963a4e1b0df641b0d37d2797e9047, type: 3}
      propertyPath: m_LocalRotation.z
      value: 0
      objectReference: {fileID: 0}
    - target: {fileID: 7317635173529555237, guid: 666963a4e1b0df641b0d37d2797e9047, type: 3}
      propertyPath: m_LocalEulerAnglesHint.x
      value: 0
      objectReference: {fileID: 0}
    - target: {fileID: 7317635173529555237, guid: 666963a4e1b0df641b0d37d2797e9047, type: 3}
      propertyPath: m_LocalEulerAnglesHint.y
      value: 0
      objectReference: {fileID: 0}
    - target: {fileID: 7317635173529555237, guid: 666963a4e1b0df641b0d37d2797e9047, type: 3}
      propertyPath: m_LocalEulerAnglesHint.z
      value: 0
      objectReference: {fileID: 0}
    m_RemovedComponents: []
    m_RemovedGameObjects: []
    m_AddedGameObjects: []
    m_AddedComponents: []
  m_SourcePrefab: {fileID: 100100000, guid: 666963a4e1b0df641b0d37d2797e9047, type: 3}
