%YAML 1.1
%TAG !u! tag:unity3d.com,2011:
--- !u!74 &7400000
AnimationClip:
  m_ObjectHideFlags: 0
  m_CorrespondingSourceObject: {fileID: 0}
  m_PrefabInstance: {fileID: 0}
  m_PrefabAsset: {fileID: 0}
  m_Name: blue-bee
  serializedVersion: 7
  m_Legacy: 0
  m_Compressed: 0
  m_UseHighQualityCurve: 1
  m_RotationCurves: []
  m_CompressedRotationCurves: []
  m_EulerCurves: []
  m_PositionCurves: []
  m_ScaleCurves: []
  m_FloatCurves: []
  m_PPtrCurves:
  - serializedVersion: 2
    curve:
    - time: 0
      value: {fileID: 21300000, guid: e6984c9934331374ea2f5c2efcd5833c, type: 3}
    - time: 0.083333336
      value: {fileID: 21300000, guid: 7465ed0c5db80364188a899cafeba675, type: 3}
    - time: 0.16666667
      value: {fileID: 21300000, guid: 4ec794fa21289394497d157664d28a06, type: 3}
    - time: 0.25
      value: {fileID: 21300000, guid: ff7f8958bf3b03440968a2ef93387493, type: 3}
    - time: 0.33333334
      value: {fileID: 21300000, guid: 36fc1598d4442734e8aa9e53f95ee222, type: 3}
    - time: 0.41666666
      value: {fileID: 21300000, guid: e59e37b9dd7873c44ae82c43d9d5784c, type: 3}
    attribute: m_Sprite
    path: 
    classID: 212
    script: {fileID: 0}
    flags: 2
  m_SampleRate: 12
  m_WrapMode: 0
  m_Bounds:
    m_Center: {x: 0, y: 0, z: 0}
    m_Extent: {x: 0, y: 0, z: 0}
  m_ClipBindingConstant:
    genericBindings:
    - serializedVersion: 2
      path: 0
      attribute: 0
      script: {fileID: 0}
      typeID: 212
      customType: 23
      isPPtrCurve: 1
      isIntCurve: 0
      isSerializeReferenceCurve: 0
    pptrCurveMapping:
    - {fileID: 21300000, guid: e6984c9934331374ea2f5c2efcd5833c, type: 3}
    - {fileID: 21300000, guid: 7465ed0c5db80364188a899cafeba675, type: 3}
    - {fileID: 21300000, guid: 4ec794fa21289394497d157664d28a06, type: 3}
    - {fileID: 21300000, guid: ff7f8958bf3b03440968a2ef93387493, type: 3}
    - {fileID: 21300000, guid: 36fc1598d4442734e8aa9e53f95ee222, type: 3}
    - {fileID: 21300000, guid: e59e37b9dd7873c44ae82c43d9d5784c, type: 3}
  m_AnimationClipSettings:
    serializedVersion: 2
    m_AdditiveReferencePoseClip: {fileID: 0}
    m_AdditiveReferencePoseTime: 0
    m_StartTime: 0
    m_StopTime: 0.5
    m_OrientationOffsetY: 0
    m_Level: 0
    m_CycleOffset: 0
    m_HasAdditiveReferencePose: 0
    m_LoopTime: 1
    m_LoopBlend: 0
    m_LoopBlendOrientation: 0
    m_LoopBlendPositionY: 0
    m_LoopBlendPositionXZ: 0
    m_KeepOriginalOrientation: 0
    m_KeepOriginalPositionY: 1
    m_KeepOriginalPositionXZ: 0
    m_HeightFromFeet: 0
    m_Mirror: 0
  m_EditorCurves: []
  m_EulerEditorCurves: []
  m_HasGenericRootTransform: 0
  m_HasMotionFloatCurves: 0
  m_Events: []
