%YAML 1.1
%TAG !u! tag:unity3d.com,2011:
--- !u!1045 &1
EditorBuildSettings:
  m_ObjectHideFlags: 0
  serializedVersion: 2
  m_Scenes:
  - enabled: 1
    path: Assets/Scenes/Menu.unity
    guid: 581dacc4eafccf547969701d2f0017a0
  - enabled: 1
    path: Assets/Scenes/DoubleJump.unity
    guid: 265863749bbd4c5449d149d4af78bb8b
  m_configObjects: {}
